<svg id="logo" xmlns="http://www.w3.org/2000/svg" width="76.264" height="66.238" viewBox="0 0 76.264 66.238">
  <g id="Group_1186" data-name="Group 1186" transform="translate(0 19.517)">
    <path id="Path_548" data-name="Path 548" d="M342.422-566.171H327.446l11.2-19.39,11.2,19.39,11.2-19.39,11.2,19.39H357.266v9.087h30.71l-26.968-46.709-11.165,19.452L338.686-603.8l-26.974,46.721h30.71v-9.087" transform="translate(-311.712 603.804)" fill="#bdb190"/>
  </g>
  <g id="Group_1187" data-name="Group 1187" transform="translate(26.985 0)">
    <path id="Path_549" data-name="Path 549" d="M535.936-734.861l3.31-5.733,3.313,5.739,7.836-4.6-11.149-19.31-11.145,19.3,7.836,4.6" transform="translate(-528.101 758.768)" fill="#f06309"/>
  </g>
</svg>
